{"name":"getUser()","id":"[engine:junit-jupiter]/[class:qa.rest.screenplay.challenge.serenityJUnit5.TestGetUser]/[method:getUser()]","scenarioId":"[engine:junit-jupiter]/[class:qa.rest.screenplay.challenge.serenityJUnit5.TestGetUser]","testCaseName":"qa.rest.screenplay.challenge.serenityJUnit5.TestGetUser","methodName":"getUser","testSteps":[{"number":1,"description":"Chechi get user","duration":567,"startTime":"2026-05-12T16:59:52.881832-05:00[America/Bogota]","result":"SUCCESS","precondition":false,"level":0,"children":[{"number":2,"description":"chechi executes a GET on the resource /users","duration":548,"startTime":"2026-05-12T16:59:52.888829-05:00[America/Bogota]","result":"SUCCESS","precondition":false,"level":1,"children":[{"number":3,"description":"GET https://reqres.in/api/users","duration":2,"startTime":"2026-05-12T16:59:53.425079-05:00[America/Bogota]","result":"SUCCESS","restQuery":{"method":"GET","path":"https://reqres.in/api/users","content":"","contentType":"application/json","requestHeaders":"x-api-key\u003dreqres_b2933e2f11814e89b1fb24eba3019a49\n\t\t\t\tAccept\u003d*/*\n\t\t\t\tContent-Type\u003dapplication/json","requestCookies":"","responseHeaders":"Date: Tue, 12 May 2026 21:59:53 GMT\nContent-Type: application/json; charset\u003dutf-8\nConnection: keep-alive\nAccess-Control-Allow-Origin: *\nCache-Control: public, max-age\u003d14400, s-maxage\u003d60\nCdn-Cache-Control: max-age\u003d60\nCross-Origin-Opener-Policy: same-origin\nCross-Origin-Resource-Policy: same-origin\nEtag: W/\"5d4-XQvkHMrepXEn0zOMImZ8QAnJMRI\"\nNel: {\"report_to\":\"heroku-nel\",\"response_headers\":[\"Via\"],\"max_age\":3600,\"success_fraction\":0.01,\"failure_fraction\":0.1}\nOrigin-Agent-Cluster: ?1\nRatelimit-Limit: 20\nRatelimit-Policy: 20;w\u003d60\nRatelimit-Remaining: 19\nRatelimit-Reset: 60\nReferrer-Policy: strict-origin-when-cross-origin\nReport-To: {\"group\":\"heroku-nel\",\"endpoints\":[{\"url\":\"https://nel.heroku.com/reports?s\u003dSFmRKl8NhVs4NPzMMDSb9qwPBaJ7eMpE%2FbXGxXm4xTM%3D\\u0026sid\u003dc4c9725f-1ab0-44d8-820f-430df2718e11\\u0026ts\u003d1778623193\"}],\"max_age\":3600}\nReporting-Endpoints: heroku-nel\u003d\"https://nel.heroku.com/reports?s\u003dSFmRKl8NhVs4NPzMMDSb9qwPBaJ7eMpE%2FbXGxXm4xTM%3D\u0026sid\u003dc4c9725f-1ab0-44d8-820f-430df2718e11\u0026ts\u003d1778623193\"\nServer: cloudflare\nStrict-Transport-Security: max-age\u003d31536000; includeSubDomains\nVia: 1.1 heroku-router\nX-Content-Type-Options: nosniff\nX-Dns-Prefetch-Control: off\nX-Download-Options: noopen\nX-Frame-Options: DENY\nX-Permitted-Cross-Domain-Policies: none\nX-Powered-By: ReqRes.in - Deploy backends in 30 seconds\nX-Ratelimit-Limit: 250\nX-Ratelimit-Remaining: 208\nX-Ratelimit-Reset: 1778630400\nX-Reqres-Docs: https://reqres.in\nX-Reqres-Message: This API is powered by ReqRes. Deploy your own backend in 30 seconds!\nX-Reqres-Templates: https://app.reqres.in/templates\nX-Reqres-Tip: Generate a complete backend from a description - app.reqres.in/dashboard\nX-Reqres-Trial: true\nX-Reqres-Trial-Days-Remaining: 13\nX-Reqres-Trial-Expires: 2026-05-25T03:16:17.106Z\nX-Reqres-Upgrade: https://app.reqres.in/upgrade\nX-Request-Id: 86b28a30-fc9b-d189-7b8d-9427e7958e98\nX-Robots-Tag: noindex, nofollow\nX-Xss-Protection: 0\ncf-cache-status: EXPIRED\nContent-Encoding: gzip\nCF-RAY: 9facb16daf897460-MIA\nContent-Length: 619","responseCookies":"","responseBody":"{\n    \"page\": 1,\n    \"per_page\": 6,\n    \"total\": 12,\n    \"total_pages\": 2,\n    \"data\": [\n        {\n            \"id\": 1,\n            \"email\": \"george.bluth@reqres.in\",\n            \"first_name\": \"George\",\n            \"last_name\": \"Bluth\",\n            \"avatar\": \"https://reqres.in/img/faces/1-image.jpg\"\n        },\n        {\n            \"id\": 2,\n            \"email\": \"janet.weaver@reqres.in\",\n            \"first_name\": \"Janet\",\n            \"last_name\": \"Weaver\",\n            \"avatar\": \"https://reqres.in/img/faces/2-image.jpg\"\n        },\n        {\n            \"id\": 3,\n            \"email\": \"emma.wong@reqres.in\",\n            \"first_name\": \"Emma\",\n            \"last_name\": \"Wong\",\n            \"avatar\": \"https://reqres.in/img/faces/3-image.jpg\"\n        },\n        {\n            \"id\": 4,\n            \"email\": \"eve.holt@reqres.in\",\n            \"first_name\": \"Eve\",\n            \"last_name\": \"Holt\",\n            \"avatar\": \"https://reqres.in/img/faces/4-image.jpg\"\n        },\n        {\n            \"id\": 5,\n            \"email\": \"charles.morris@reqres.in\",\n            \"first_name\": \"Charles\",\n            \"last_name\": \"Morris\",\n            \"avatar\": \"https://reqres.in/img/faces/5-image.jpg\"\n        },\n        {\n            \"id\": 6,\n            \"email\": \"tracey.ramos@reqres.in\",\n            \"first_name\": \"Tracey\",\n            \"last_name\": \"Ramos\",\n            \"avatar\": \"https://reqres.in/img/faces/6-image.jpg\"\n        }\n    ],\n    \"support\": {\n        \"url\": \"https://benhowdle.im/first-cto-playbook?utm_source\u003dreqres\u0026utm_medium\u003djson\u0026utm_campaign\u003dreferral\",\n        \"text\": \"Become a better CTO. A playbook of painful stories and practical advice from a two-time startup CTO.\"\n    },\n    \"_meta\": {\n        \"powered_by\": \"ReqRes\",\n        \"docs_url\": \"https://app.reqres.in/documentation\",\n        \"upgrade_url\": \"https://app.reqres.in/upgrade\",\n        \"example_url\": \"https://app.reqres.in/examples/notes-app\",\n        \"variant\": \"v1_b\",\n        \"message\": \"This is a read-only demo endpoint. Sign up to create your own collections with full CRUD and auth.\",\n        \"cta\": {\n            \"label\": \"Get started\",\n            \"url\": \"https://app.reqres.in/upgrade\"\n        },\n        \"context\": \"legacy_success\"\n    }\n}","statusCode":200},"precondition":false,"level":2}]}]},{"number":4,"description":"Then the status code should be (200)","duration":6,"startTime":"2026-05-12T16:59:53.453895-05:00[America/Bogota]","result":"SUCCESS","precondition":false,"level":0},{"number":5,"description":"Then La cantidad de usuarios should be a collection with size (6)","duration":215,"startTime":"2026-05-12T16:59:53.465653-05:00[America/Bogota]","result":"SUCCESS","precondition":false,"level":0}],"userStory":{"id":"qa.rest.screenplay.challenge.serenityJUnit5.TestGetUser","storyName":"TestGetUser","displayName":"TestGetUser","storyClassName":"qa.rest.screenplay.challenge.serenityJUnit5.TestGetUser","path":"qa.rest.screenplay.challenge.serenityJUnit5.TestGetUser","pathElements":[{"name":"qa","description":"qa"},{"name":"rest","description":"rest"},{"name":"screenplay","description":"screenplay"},{"name":"challenge","description":"challenge"},{"name":"serenityJUnit5","description":"serenityJUnit5"},{"name":"TestGetUser","description":"TestGetUser"}],"narrative":"","type":"feature"},"title":"Get user","tags":[{"name":"qa/rest/screenplay/challenge/serenityJUnit5/TestGetUser","type":"feature","displayName":"TestGetUser"}],"startTime":"2026-05-12T16:59:52.876621-05:00[America/Bogota]","endTime":"2026-05-12T16:59:53.683087-05:00[America/Bogota]","duration":548,"projectKey":"","driver":"","isManualTestingUpToDate":false,"manual":false,"testSource":"JUnit5","actors":[{"name":"chechi","can":["call an API at https://reqres.in/api"]}],"order":0,"result":"SUCCESS"}